Basic Modeling
…
         "temp" = "Temperature(캜)",
         "humid" = "Humidity(%)",
         "wind" = "Wind speed (m/s)",
         "vis" = "Visibility (10m)",
         "dew_point" = "Dew point temperature(캜)",
         "solar_rad" = "Solar Radiation (MJ/m2)",
         "rain" = "Rainfall(mm)",
         "snow" = "Snowfall (cm)",
         "season" = "Seasons",
         "holiday" = "Holiday",
         "fun_day" = "Functioning Day") |>
  mutate(across(c(season, holiday, fun_day), as.factor), date = dmy(date))
bike_data

# A tibble: 8,760 × 14
   date       rent_bike  hour  temp humid  wind   vis dew_point solar_rad  rain
   <date>         <dbl> <dbl> <dbl> <dbl> <dbl> <dbl>     <dbl>     <dbl> <dbl>
 1 2017-12-01       254     0  -5.2    37   2.2  2000     -17.6      0        0
 2 2017-12-01       204     1  -5.5    38   0.8  2000     -17.6      0        0
 3 2017-12-01       173     2  -6      39   1    2000     -17.7      0        0
 4 2017-12-01       107     3  -6.2    40   0.9  2000     -17.6      0        0
 5 2017-12-01        78     4  -6      36   2.3  2000     -18.6      0        0
 6 2017-12-01       100     5  -6.4    37   1.5  2000     -18.7      0        0
 7 2017-12-01       181     6  -6.6    35   1.3  2000     -19.5      0        0
 8 2017-12-01       460     7  -7.4    38   0.9  2000     -19.3      0        0
 9 2017-12-01       930     8  -7.6    37   1.1  2000     -19.8      0.01     0
10 2017-12-01       490     9  -6.5    27   0.5  1928     -22.4      0.23     0
# ℹ 8,750 more rows
# ℹ 4 more variables: snow <dbl>, season <fct>, holiday <fct>, fun_day <fct>
…
`summarise()` has grouped output by 'date', 'season'. You can override using
the `.groups` argument.

bike_data

# A tibble: 365 × 12
# Groups:   date, season [365]
   date       season holiday    total_rent_bike total_rain total_snow mean_temp
   <date>     <fct>  <fct>                <dbl>      <dbl>      <dbl>     <dbl>
 1 2017-12-01 Winter No Holiday            9539        0          0     -2.45  
 2 2017-12-02 Winter No Holiday            8523        0          0      1.32  
 3 2017-12-03 Winter No Holiday            7222        4          0      4.88  
 4 2017-12-04 Winter No Holiday            8729        0.1        0     -0.304 
 5 2017-12-05 Winter No Holiday            8307        0          0     -4.46  
 6 2017-12-06 Winter No Holiday            6669        1.3        8.6    0.0458
 7 2017-12-07 Winter No Holiday            8549        0         10.4    1.09  
 8 2017-12-08 Winter No Holiday            8032        0          0     -3.82  
 9 2017-12-09 Winter No Holiday            7233        0          0     -0.846 
10 2017-12-10 Winter No Holiday            3453        4.1       32.5    1.19  
# ℹ 355 more rows
# ℹ 5 more variables: mean_humid <dbl>, mean_wind <dbl>, mean_vis <dbl>,
#   mean_dew_point <dbl>, mean_solar_rad <dbl>
…
final_summary <- bike_data |>
  summarize(across(where(is.numeric),list(mean = mean,
                                          median = median,
                                          min = min,
                                          max = max,
                                          sd = sd)),
            across(where(is.factor), ~ length(unique(.)),.names = "unique_{.col}")
  )

`summarise()` has grouped output by 'date'. You can override using the
`.groups` argument.

final_summary

# A tibble: 365 × 48
# Groups:   date [365]
   date       season total_rent_bike_mean total_rent_bike_median
   <date>     <fct>                 <dbl>                  <dbl>
 1 2017-12-01 Winter                 9539                   9539
 2 2017-12-02 Winter                 8523                   8523
 3 2017-12-03 Winter                 7222                   7222
 4 2017-12-04 Winter                 8729                   8729
 5 2017-12-05 Winter                 8307                   8307
 6 2017-12-06 Winter                 6669                   6669
 7 2017-12-07 Winter                 8549                   8549
 8 2017-12-08 Winter                 8032                   8032
 9 2017-12-09 Winter                 7233                   7233
10 2017-12-10 Winter                 3453                   3453
# ℹ 355 more rows
# ℹ 44 more variables: total_rent_bike_min <dbl>, total_rent_bike_max <dbl>,
#   total_rent_bike_sd <dbl>, total_rain_mean <dbl>, total_rain_median <dbl>,
#   total_rain_min <dbl>, total_rain_max <dbl>, total_rain_sd <dbl>,
#   total_snow_mean <dbl>, total_snow_median <dbl>, total_snow_min <dbl>,
#   total_snow_max <dbl>, total_snow_sd <dbl>, mean_temp_mean <dbl>,
#   mean_temp_median <dbl>, mean_temp_min <dbl>, mean_temp_max <dbl>, …
…
final_metrics <- final_fit |> collect_metrics()
final_metrics

# A tibble: 2 × 4
  .metric .estimator .estimate .config             
  <chr>   <chr>          <dbl> <chr>               
1 rmse    standard    6259.    Preprocessor1_Model1
2 rsq     standard       0.618 Preprocessor1_Model1

final_model <- final_fit |>
  extract_fit_parsnip()
model_coef <- tidy(final_model)
model_coef

# A tibble: 32 × 5
   term                               estimate std.error statistic      p.value
   <chr>                                 <dbl>     <dbl>     <dbl>        <dbl>
 1 (Intercept)                          18008.     3073.     5.86  0.0000000151
 2 season_Spring                        -2606.     4123.    -0.632 0.528       
 3 season_Summer                        14849.     6589.     2.25  0.0251      
 4 season_Winter                         2278.    15600.     0.146 0.884       
 5 holiday_No.Holiday                    2626.     2872.     0.915 0.361       
 6 day_type_weekend                     -1734.      681.    -2.55  0.0115      
 7 season_Spring_x_holiday_No.Holiday    -508.     4206.    -0.121 0.904       
 8 season_Summer_x_holiday_No.Holiday    2231.     5667.     0.394 0.694       
 9 season_Winter_x_holiday_No.Holiday   -9305.    15572.    -0.598 0.551       
10 season_Spring_x_mean_temp             8181.     4092.     2.00  0.0467      
# ℹ 22 more rows
